	1	4.688683e+06	6.315422e+04	10
	2	2.730200e+06	4.314053e+05	10
	3	2.194127e+06	3.015352e+04	10
	4	1.525638e+06	2.681811e+04	10
	6	1.505408e+06	1.873733e+04	10
	8	1.478731e+06	4.831992e+04	10
	12	1.464226e+06	5.009272e+04	10
	16	1.469680e+06	1.635774e+04	10
	24	1.414418e+06	5.032273e+04	10
	32	1.413784e+06	4.469485e+04	10
	64	1.366186e+06	2.965635e+04	10
	128	1.285315e+06	1.471962e+04	10
	256	1.128482e+06	2.115137e+04	10
